%!PS-Adobe-3.0 EPSF-3.0
%%Creator: cairo 1.16.0 (https://cairographics.org)
%%CreationDate: Sat Jun  5 17:59:10 2021
%%Pages: 1
%%DocumentData: Clean7Bit
%%LanguageLevel: 3
%%BoundingBox: 32 29 422 171
%%EndComments
%%BeginProlog
50 dict begin
/q { gsave } bind def
/Q { grestore } bind def
/cm { 6 array astore concat } bind def
/w { setlinewidth } bind def
/J { setlinecap } bind def
/j { setlinejoin } bind def
/M { setmiterlimit } bind def
/d { setdash } bind def
/m { moveto } bind def
/l { lineto } bind def
/c { curveto } bind def
/h { closepath } bind def
/re { exch dup neg 3 1 roll 5 3 roll moveto 0 rlineto
      0 exch rlineto 0 rlineto closepath } bind def
/S { stroke } bind def
/f { fill } bind def
/f* { eofill } bind def
/n { newpath } bind def
/W { clip } bind def
/W* { eoclip } bind def
/BT { } bind def
/ET { } bind def
/BDC { mark 3 1 roll /BDC pdfmark } bind def
/EMC { mark /EMC pdfmark } bind def
/cairo_store_point { /cairo_point_y exch def /cairo_point_x exch def } def
/Tj { show currentpoint cairo_store_point } bind def
/TJ {
  {
    dup
    type /stringtype eq
    { show } { -0.001 mul 0 cairo_font_matrix dtransform rmoveto } ifelse
  } forall
  currentpoint cairo_store_point
} bind def
/cairo_selectfont { cairo_font_matrix aload pop pop pop 0 0 6 array astore
    cairo_font exch selectfont cairo_point_x cairo_point_y moveto } bind def
/Tf { pop /cairo_font exch def /cairo_font_matrix where
      { pop cairo_selectfont } if } bind def
/Td { matrix translate cairo_font_matrix matrix concatmatrix dup
      /cairo_font_matrix exch def dup 4 get exch 5 get cairo_store_point
      /cairo_font where { pop cairo_selectfont } if } bind def
/Tm { 2 copy 8 2 roll 6 array astore /cairo_font_matrix exch def
      cairo_store_point /cairo_font where { pop cairo_selectfont } if } bind def
/g { setgray } bind def
/rg { setrgbcolor } bind def
/d1 { setcachedevice } bind def
/cairo_data_source {
  CairoDataIndex CairoData length lt
    { CairoData CairoDataIndex get /CairoDataIndex CairoDataIndex 1 add def }
    { () } ifelse
} def
/cairo_flush_ascii85_file { cairo_ascii85_file status { cairo_ascii85_file flushfile } if } def
/cairo_image { image cairo_flush_ascii85_file } def
/cairo_imagemask { imagemask cairo_flush_ascii85_file } def
%%EndProlog
%%BeginSetup
%%EndSetup
%%Page: 1 1
%%BeginPageSetup
%%PageBoundingBox: 32 29 422 171
%%EndPageSetup
q 32 29 390 142 rectclip
1 0 0 -1 0 199 cm q
q
308.469 28.629 m 308.469 28.633 l 308.465 28.633 l 307.68 28.637 306.895
 28.648 306.109 28.68 c 305.332 28.711 304.551 28.754 303.773 28.809 c 303.004
 28.867 302.238 28.941 301.473 29.027 c 301.465 29.027 l 301.457 29.027 
301.441 29.027 301.43 29.031 c 300.688 29.117 299.949 29.211 299.211 29.32
 c 299.176 29.328 299.141 29.332 299.105 29.336 c 298.402 29.441 297.699
 29.562 296.996 29.691 c 296.918 29.707 296.84 29.719 296.762 29.734 c 296.094
 29.863 295.422 30 294.754 30.148 c 294.676 30.168 294.594 30.188 294.516
 30.203 c 293.848 30.355 293.18 30.52 292.52 30.691 c 292.449 30.711 292.383
 30.727 292.316 30.746 c 291.656 30.922 290.996 31.105 290.34 31.305 c 290.258
 31.328 290.176 31.352 290.094 31.379 c 289.434 31.578 288.777 31.793 288.125
 32.016 c 288.062 32.039 288 32.059 287.941 32.078 c 287.277 32.309 286.621
 32.547 285.965 32.797 c 285.914 32.816 285.863 32.836 285.812 32.859 c 
285.148 33.113 284.496 33.379 283.844 33.656 c 283.805 33.672 283.762 33.688
 283.723 33.707 c 283.047 33.996 282.375 34.297 281.711 34.609 c 281.027
 34.93 280.348 35.262 279.676 35.609 c 277.664 36.645 275.707 37.789 273.816
 39.035 c 271.926 40.281 270.105 41.633 268.359 43.074 c 267.777 43.555 
267.203 44.047 266.641 44.551 c 266.074 45.051 265.52 45.562 264.977 46.086
 c 264.973 46.086 264.973 46.09 264.969 46.094 c 264.441 46.598 263.922 
47.113 263.414 47.633 c 263.375 47.672 263.344 47.707 263.309 47.742 c 262.82
 48.242 262.344 48.754 261.875 49.27 c 261.824 49.328 261.773 49.383 261.723
 49.441 c 261.273 49.938 260.828 50.445 260.395 50.957 c 260.387 50.969 
l 260.359 51.004 260.328 51.035 260.301 51.066 c 260.266 51.109 260.23 51.156
 260.195 51.195 c 259.766 51.711 259.344 52.23 258.93 52.762 c 258.918 52.773
 l 258.867 52.836 258.816 52.902 258.766 52.969 c 258.359 53.492 257.961
 54.023 257.57 54.559 c 257.539 54.598 257.512 54.637 257.484 54.676 c 257.453
 54.719 257.426 54.758 257.398 54.801 c 257.008 55.34 256.629 55.887 256.258
 56.441 c 256.195 56.531 256.137 56.621 256.078 56.711 c 255.711 57.258 
255.352 57.816 255.004 58.379 c 254.977 58.422 254.949 58.465 254.922 58.508
 c 254.922 58.512 l 253.742 60.418 252.676 62.391 251.707 64.414 c 251.695
 64.453 251.465 65.137 251.598 65.559 c 251.723 65.934 251.562 65.996 251.574
 66.25 c 251.586 66.508 251.703 66.945 251.707 67.168 c 251.707 67.395 251.707
 67.414 251.77 67.465 c 251.836 67.516 252.34 67.453 252.523 67.266 c 252.621
 67.184 252.652 67.047 252.723 66.941 c 252.816 66.797 252.906 66.645 253.016
 66.512 c 253.375 66.078 253.789 65.703 254.262 65.402 c 254.426 65.297 
254.605 65.23 254.754 65.105 c 254.875 65.004 255.18 64.68 255.375 64.582
 c 255.984 64.277 255.742 64.461 256.391 64.285 c 256.551 64.246 256.699
 64.18 256.852 64.121 c 257.047 64.047 257.266 64.012 257.441 63.895 c 257.695
 63.715 257.578 63.531 257.57 63.305 c 257.562 63.059 257.547 62.258 257.637
 61.992 c 257.801 61.5 258.453 61.426 258.785 61.074 c 258.922 60.93 259.062
 60.781 259.176 60.617 c 259.277 60.469 259.156 60.297 259.473 60.156 c 
259.598 60.102 259.738 60.105 259.867 60.059 c 260.184 59.949 260.336 59.754
 260.586 59.504 c 260.738 59.352 260.859 59.164 261.012 59.012 c 261.164
 58.859 261.41 58.848 261.602 58.75 c 261.676 58.711 261.715 58.594 261.797
 58.586 c 261.941 58.57 262.082 58.66 262.227 58.684 c 262.371 58.711 262.762
 58.875 263.043 58.75 c 263.324 58.625 263.371 58.391 263.406 58.289 c 263.441
 58.191 263.473 57.945 263.566 57.801 c 263.719 57.566 263.922 57.367 264.125
 57.176 c 264.316 57 265.113 56.582 265.371 56.52 c 265.586 56.473 265.812
 56.523 266.027 56.488 c 266.266 56.445 266.504 56.387 266.746 56.359 c 
266.898 56.344 267.727 56.332 267.859 56.359 c 268.051 56.395 268.016 56.527
 267.762 56.652 c 267.512 56.777 266.953 56.801 266.848 57.438 c 266.836
 57.508 266.773 57.75 266.945 57.832 c 267.113 57.914 267.848 57.598 268.188
 57.504 c 268.531 57.41 268.66 57.512 268.879 57.469 c 269.094 57.43 269.27
 57.336 269.598 57.309 c 269.762 57.285 269.934 57.324 270.09 57.273 c 270.246
 57.227 270.273 57 270.383 56.914 c 270.625 56.727 270.922 56.789 271.137
 56.555 c 271.289 56.387 271.609 55.695 271.402 55.637 c 271.191 55.578 
270.926 55.871 270.68 55.93 c 270.605 55.949 270.164 55.996 270.059 55.93
 c 269.938 55.859 269.875 55.719 269.766 55.637 c 269.453 55.41 269.605 
55.84 269.305 55.309 c 269.234 55.188 269.398 54.391 269.434 54.293 c 269.48
 54.176 269.973 54.07 270.023 53.734 c 270.035 53.676 269.922 53.668 269.895
 53.605 c 269.863 53.543 269.844 53.453 269.859 53.375 c 269.887 53.25 270.148
 53.348 270.254 53.344 c 270.359 53.336 270.59 53.344 270.77 53.109 c 270.953
 52.875 271.008 52.633 270.895 52.57 c 270.785 52.508 270.535 52.523 270.254
 52.457 c 270.074 52.418 269.922 52.289 269.762 52.195 c 269.594 52.098 
269.746 51.773 269.926 51.738 c 270.105 51.699 270.203 51.766 270.352 51.738
 c 270.5 51.711 270.789 51.633 271.039 51.574 c 271.293 51.516 271.633 51.227
 271.891 51.312 c 271.969 51.336 271.969 51.387 272.09 51.441 c 272.211 
51.496 272.434 51.582 272.613 51.641 c 272.992 51.758 273.578 51.941 273.988
 51.965 c 274.219 51.977 274.449 51.965 274.68 51.965 c 275.207 51.965 275.59
 51.902 275.895 51.867 c 276.199 51.832 276.43 51.766 276.512 51.77 c 276.598
 51.777 276.641 51.836 276.48 52.098 c 276.316 52.363 275.625 52.82 275.234
 53.211 c 275.145 53.301 275.082 53.406 275.008 53.508 c 274.875 53.648 
274.75 53.801 274.609 53.934 c 274.555 53.984 274.48 54.02 274.414 54.062
 c 274.227 54.191 274.137 54.273 273.855 54.457 c 273.578 54.637 273.203
 54.695 273.07 54.914 c 272.941 55.133 273.082 55.309 273.168 55.379 c 273.25
 55.453 273.613 55.652 273.859 55.703 c 274.105 55.754 274.418 55.824 274.645
 55.898 c 274.875 55.973 274.422 56.363 274.449 56.52 c 274.469 56.633 274.863
 56.797 274.906 56.816 c 275.539 57.086 275.656 57.035 276.188 56.586 c 
276.27 56.516 276.348 56.441 276.414 56.355 c 276.805 55.871 276.414 55.91
 276.414 55.57 c 276.414 55.332 276.672 55.336 276.773 55.176 c 276.875 
55.02 276.801 54.77 276.84 54.621 c 276.875 54.473 277.039 54.266 276.973
 54.129 c 276.871 53.934 276.23 53.949 276.281 53.637 c 276.336 53.328 276.754
 52.805 277.07 52.391 c 277.297 52.098 277.43 51.707 277.594 51.379 c 277.887
 51.184 278.312 50.965 278.414 50.723 c 278.516 50.48 278.516 50.465 278.609
 50.332 c 278.707 50.195 278.887 50.059 278.871 49.836 c 278.852 49.516 
278.695 49.203 278.645 48.887 c 278.57 48.445 278.883 48.812 278.969 48.492
 c 279.059 48.172 278.73 47.75 278.645 47.379 c 278.559 47.004 278.52 46.789
 278.645 46.332 c 278.668 46.234 278.656 46.125 278.711 46.039 c 278.812
 45.863 279.219 46.051 279.562 45.676 c 279.902 45.301 280 44.914 280.117
 44.465 c 280.234 44.012 280.43 43.695 280.512 43.449 c 280.594 43.203 280.504
 43.215 280.215 43.285 c 279.93 43.355 279.82 43.547 279.723 43.645 c 279.473
 43.793 278.891 43.949 278.777 43.809 c 278.66 43.668 278.957 42.945 279.102
 42.762 c 279.492 42.262 279.633 42.109 279.855 41.977 c 279.977 41.902 
280.004 42.137 280.184 41.941 c 280.359 41.746 280.254 40.895 280.383 40.5
 c 280.508 40.105 280.5 39.918 280.418 39.691 c 280.336 39.465 280.047 39.449
 279.914 39.477 c 280.645 39.152 281.379 38.84 282.121 38.543 c 282.133 
38.773 282.578 38.922 282.578 39.09 c 282.578 39.262 282.504 39.277 282.445
 39.516 c 282.387 39.754 282.188 40.133 282.02 40.402 c 281.945 40.559 281.859
 41.059 282.082 41.156 c 282.926 41.516 283.047 40.457 283.297 40.141 c 
283.543 39.824 283.535 40.363 283.559 40.5 c 283.582 40.633 283.578 40.656
 283.559 40.828 c 283.535 41 283.746 41.172 283.918 41.125 c 284.18 41.051
 284.188 40.824 284.477 40.469 c 284.762 40.109 284.891 40 285.262 39.516
 c 285.633 39.035 285.215 38.746 285.855 38.469 c 286.492 38.191 286.734
 38.473 286.379 38.832 c 285.828 39.348 286.246 39.605 286.605 39.582 c 
286.969 39.562 287.059 39.48 287.262 39.387 c 287.465 39.293 288.066 38.621
 288.18 38.273 c 288.293 37.926 288.324 37.145 288.543 36.832 c 288.898 
36.336 289.34 36.379 289.641 36.285 c 289.938 36.195 289.883 36.102 289.945
 36.035 c 291.844 35.562 293.777 35.188 295.73 34.898 c 295.703 34.918 295.676
 34.941 295.652 34.965 c 295.5 35.105 295.441 35.266 295.227 35.422 c 295.008
 35.582 294.68 35.938 294.734 36.145 c 294.773 36.297 294.789 36.191 294.863
 36.34 c 294.938 36.488 294.957 36.707 294.734 36.93 c 294.316 37.348 293.66
 36.992 293.391 37.094 c 293.121 37.195 293.129 37.352 293.258 37.457 c 
293.391 37.559 294.523 37.203 294.176 37.621 c 293.832 38.035 293.301 38.109
 292.996 38.176 c 292.246 38.344 292.141 38.359 291.625 38.754 c 290.73 
39.441 290.879 39.57 290.504 40.238 c 290.133 40.906 290.25 40.672 289.555
 41.777 c 288.863 42.883 288.977 43.633 289.098 43.875 c 289.215 44.117 
289.441 43.859 289.555 44.008 c 289.66 44.141 289.539 44.602 289.652 44.891
 c 289.77 45.184 290.254 45.242 290.504 45.219 c 290.996 45.164 291.969 
43.969 292.602 43.582 c 293.238 43.191 294.043 43.133 294.438 42.762 c 294.832
 42.391 294.801 42.348 294.996 41.977 c 295.191 41.602 295.211 41.516 295.684
 41.418 c 296.156 41.324 296.223 41.406 296.438 41.387 c 296.652 41.367 
297.18 41.273 297.453 41.191 c 297.727 41.105 298.223 40.836 298.664 40.598
 c 299.879 39.812 301.199 39.996 301.844 39.914 c 302.492 39.828 302.414
 39.801 303.121 39.617 c 303.832 39.434 304.227 39.387 304.859 39.254 c 
305.488 39.125 306.16 38.676 306.336 38.242 c 306.508 37.809 306.004 37.68
 305.844 37.453 c 305.68 37.23 305.379 36.637 306.008 36.602 c 306.633 36.57
 306.875 36.703 307.047 36.672 c 307.219 36.641 307.301 36.504 307.383 36.375
 c 307.465 36.246 307.633 36.004 307.777 35.883 c 307.922 35.762 308.352
 35.809 308.203 35.488 c 308.051 35.172 307.832 35.023 307.742 34.836 c 
307.797 34.699 307.879 34.824 307.938 34.801 c 308.27 34.664 308.227 34.523
 308.332 34.348 c 313.734 34.672 319.074 35.715 324.211 37.445 c 324.172
 37.469 324.133 37.488 324.105 37.516 c 323.965 37.656 324.094 38.508 323.824
 38.641 c 323.613 38.746 323.297 38.586 323.051 38.711 c 322.816 38.828 
322.953 39.004 322.914 39.203 c 322.879 39.375 322.621 39.5 322.703 39.691
 c 322.973 40.324 322.926 39.754 323.125 40.605 c 323.152 40.719 323.105
 40.84 323.125 40.957 c 323.172 41.258 323.734 42.375 323.617 42.641 c 323.496
 42.906 323.105 43.574 322.633 43.906 c 322.496 44 322.324 44.059 322.211
 44.184 c 321.918 44.512 321.727 45.406 321.648 45.801 c 321.5 46.555 321.945
 46.828 322.352 47.273 c 322.758 47.719 322.551 47.852 322.703 48.117 c 
323.004 48.645 323.672 48.914 324.246 48.961 c 324.387 48.973 324.543 49.023
 324.668 48.961 c 324.719 48.934 324.945 48.332 324.949 48.328 c 325.336
 47.68 325.996 47.738 326.633 47.977 c 326.98 48.105 326.73 48.164 326.984
 48.68 c 327.148 49.004 327.43 49.262 327.688 49.52 c 327.801 49.633 328
 49.621 328.109 49.73 c 328.543 50.16 328.254 50.113 328.602 50.574 c 328.742
 50.762 328.969 50.863 329.164 50.996 c 329.422 51.168 329.785 51.445 330.145
 51.207 c 330.59 50.906 330.176 50.852 330.426 50.504 c 330.488 50.418 330.648
 50.449 330.707 50.363 c 330.918 50.066 330.734 49.367 330.637 49.098 c 
330.504 48.723 330.137 48.445 330.074 48.047 c 330.012 47.617 330.344 46.84
 330.219 46.5 c 330.039 46.027 329.441 46 329.094 45.73 c 329 45.656 328.969
 45.527 328.883 45.449 c 328.758 45.336 328.586 45.277 328.461 45.168 c 
328.359 45.078 328.238 44.773 328.18 44.676 c 328.094 44.531 327.977 44.406
 327.898 44.254 c 327.543 43.543 328.176 42.539 328.109 41.797 c 328.102
 41.727 327.922 41.797 327.898 41.727 c 327.762 41.547 327.598 41.332 327.898
 41.168 c 328.203 41.004 329.246 41.188 329.441 41.867 c 329.543 42.211 
329.605 42.566 329.656 42.922 c 329.719 43.391 329.586 44.367 329.863 44.746
 c 329.973 44.895 330.152 44.977 330.285 45.098 c 331.047 45.883 331.223
 45.68 331.551 45.871 c 331.879 46.062 332.273 46.473 332.883 46.293 c 333.539
 45.98 332.914 45.82 333.727 45.66 c 334.012 45.578 334.305 45.66 334.57
 45.871 c 334.668 45.949 334.664 46.141 334.57 46.219 c 334.074 46.652 333.184
 46.488 333.023 47.203 c 333.016 47.246 332.91 47.656 332.957 47.766 c 333.195
 48.359 334.227 47.613 334.5 47.977 c 334.715 48.266 335.039 48.961 334.359
 48.961 c 334.141 48.961 333.984 48.98 333.727 48.82 c 333.469 48.656 333.148
 48.48 333.305 49.309 c 333.461 50.141 334.371 51.062 334.078 51.906 c 333.941
 52.273 333.434 51.867 333.234 51.836 c 333.051 51.809 332.859 51.836 332.672
 51.836 c 331.68 51.836 331.219 52.672 330.215 52.75 c 329.617 52.797 330.379
 52.168 329.23 52.398 c 328.949 52.453 328.668 52.527 328.391 52.609 c 328.34
 52.625 328.285 52.715 328.25 52.68 c 328.211 52.641 328.312 52.59 328.32
 52.539 c 328.34 52.422 328.293 52.301 328.32 52.188 c 328.367 51.984 328.602
 51.836 328.602 51.625 c 328.602 51.52 328.5 51.441 328.461 51.344 c 328.375
 51.145 328.418 51.094 328.25 50.926 c 328.051 50.723 327.109 51.102 327.055
 50.992 c 326.77 50.422 327.008 49.719 326.145 49.66 c 325.957 49.648 325.746
 49.637 325.582 49.73 c 324.898 50.129 325.633 50.852 325.934 51.137 c 326.023
 51.223 326.121 51.305 326.215 51.395 c 326.211 51.66 326.238 51.926 326.281
 52.188 c 326.34 52.504 327.164 53.305 327.055 53.52 c 327.008 53.621 327.113
 53.5 326.703 53.59 c 326.242 53.691 325.863 53.914 325.371 54.012 c 325.09
 54.066 324.75 53.973 324.527 54.152 c 323.91 54.645 324.508 55.203 324.316
 55.766 c 324.164 56.223 323.703 56.812 323.266 57.031 c 323.18 57.074 323.047
 57.031 322.984 57.102 c 322.867 57.234 322.902 57.297 322.773 57.59 c 322.641
 57.883 322.309 57.781 322.141 58.016 c 321.969 58.496 321.793 58.688 321.438
 58.855 c 321.082 59.023 320.621 59.129 320.176 58.855 c 320.02 58.793 319.84
 58.43 319.754 58.574 c 319.273 59.379 319.926 59.688 320.242 60.191 c 320.527
 60.652 320.152 60.312 319.965 60.191 c 319.777 60.066 318.234 60 317.996
 60.191 c 317.934 60.242 317.895 60.324 317.855 60.398 c 317.781 60.551 
318.121 60.621 318.277 60.684 c 318.66 60.828 319.992 61.059 320.242 61.312
 c 320.379 61.449 320.289 61.707 320.387 61.875 c 320.449 61.988 320.625
 62.031 320.668 62.156 c 320.695 62.238 320.535 62.734 320.945 63.066 c 
321.355 63.402 321.375 64.891 321.297 65.664 c 321.148 66.258 320.887 66.07
 320.316 66.156 c 319.426 66.238 318.535 66.152 317.648 66.227 c 317.477
 66.242 317.324 66.359 317.152 66.367 c 315.969 66.414 315.746 66.012 314.699
 66.297 c 314.645 66.312 314.352 66.359 314.277 66.438 c 313.934 66.781 
314.258 68.27 314.277 68.473 c 314.281 69.145 314.289 70.051 314.133 70.441
 c 313.98 70.828 314.105 70.957 314.066 71.211 c 314.02 71.375 313.973 71.539
 313.926 71.703 c 313.855 71.727 313.754 71.711 313.715 71.773 c 313.461
 72.195 313.266 72.648 313.082 73.105 c 313.031 73.238 312.941 73.457 313.012
 73.527 c 313.082 73.598 314.207 73.281 314.418 73.316 c 314.629 73.352 
314.285 73.684 314.664 74.227 c 315.043 74.773 316.969 74.969 317.297 75.07
 c 317.559 75.156 317.074 75.93 317.996 75.984 c 318.852 75.965 319.297 
75.512 319.613 75.211 c 319.926 74.91 321.605 75.445 321.93 75.281 c 322.082
 75.207 322.117 75 322.211 74.863 c 322.328 74.695 322.414 74.508 322.562
 74.371 c 322.809 74.148 323.156 74.207 323.336 73.879 c 323.473 73.629 
323.355 73.297 323.477 73.035 c 323.551 72.871 324.035 72.234 324.035 71.984
 c 324.035 71.742 323.715 71.59 323.688 71.352 c 323.676 71.258 323.637 
70.414 323.758 70.16 c 324.023 69.59 324.32 69.227 324.809 68.824 c 325.047
 68.629 325.75 68.309 325.934 68.051 c 326.293 67.547 326.012 66.695 326.281
 66.156 c 326.723 65.277 327.945 65.945 328.602 65.945 c 328.93 65.945 329.262
 65.941 329.582 65.875 c 330.105 65.773 330.43 65.156 330.707 64.82 c 331.168
 64.266 331.312 64.465 331.902 64.543 c 332.941 64.703 332.926 65.879 333.164
 66.156 c 333.406 66.434 335.414 67.184 336.113 67.492 c 336.766 67.773 
337.523 68.18 338.082 68.613 c 338.266 68.758 338.402 68.949 338.57 69.105
 c 338.84 69.355 339.176 69.531 339.414 69.809 c 339.5 70.117 339.527 70.566
 339.555 70.789 c 339.578 71.012 339.52 71.703 339.344 71.773 c 339.145 
71.852 338.926 71.883 338.711 71.914 c 338.141 71.973 337.547 71.98 337.098
 72.125 c 336.629 72.406 336.402 73.035 337.234 72.895 c 338.07 72.758 338.707
 73.777 339.414 73.527 c 340.117 73.277 339.758 71.598 340.043 71.281 c 
340.328 70.965 340.281 69.676 340.117 69.457 c 339.875 69.137 339.27 69.203
 339.344 68.613 c 339.41 68.074 340.711 69.32 340.957 68.824 c 341.207 68.328
 339.75 67.922 339.484 67.84 c 338.996 67.691 338.262 67.363 337.867 67.07
 c 337.668 66.852 337.461 66.75 337.234 66.648 c 336.934 66.445 336.691 
66.156 336.395 65.945 c 335.793 65.523 335.227 65.125 334.637 64.684 c 334.227
 64.375 334.035 64.348 333.656 63.91 c 333.273 63.473 333.496 62.965 333.516
 62.719 c 333.531 62.469 333.066 62.406 333.586 62.156 c 334.102 61.906 
334.828 62.809 335.34 63.277 c 335.516 63.43 336.352 63.965 336.742 64.121
 c 337.172 64.293 338.172 64.633 338.637 64.754 c 338.871 64.812 339.113
 64.824 339.34 64.895 c 340.055 65.102 340.754 65.703 341.309 66.156 c 341.586
 66.328 341.555 66.465 341.59 66.719 c 341.613 67 341.641 68.207 341.73 
68.332 c 342.41 69.305 342.32 68.617 343.344 69.387 c 343.531 69.527 343.637
 70.473 343.77 70.648 c 344.484 71.414 345.871 72.574 346.156 72.262 c 346.441
 71.953 345.996 71.375 345.941 71.141 c 345.891 70.934 345.805 70.727 345.805
 70.508 c 345.805 70.277 346.512 69.723 345.875 69.246 c 345.684 69.102 
345.438 69.039 345.242 68.895 c 344.715 68.508 344.918 68.508 344.539 68.051
 c 344.328 67.801 343.859 67.281 344.188 67.141 c 344.516 67 344.77 67.664
 345.031 67.488 c 345.246 67.348 344.875 67.082 345.031 66.719 c 345.188
 66.355 346.387 66.191 346.715 66.367 c 347.34 66.695 346.98 67.602 347.141
 68.125 c 347.242 68.465 347.445 68.77 347.559 69.105 c 347.613 69.266 347.594
 69.465 347.699 69.598 c 347.934 69.883 349.504 70.496 349.809 70.648 c 
350.113 70.801 350.484 71.441 351 71.141 c 351.516 70.84 352.242 70.242 
352.828 70.297 c 353.414 70.355 353.441 71.125 353.809 70.227 c 354.18 69.328
 355.453 69.605 355.355 70.441 c 355.344 71.129 355.594 70.934 355.773 71.492
 c 356.227 72.34 356.184 71.871 356.477 72.754 c 356.594 73.109 356.531 
73.699 356.617 74.09 c 356.707 76.031 357.039 76.355 355.844 76.617 c 355.488
 76.648 354.719 76.477 354.508 76.754 c 354.301 77.035 354.613 77.25 354.441
 77.457 c 354.27 77.668 353.574 78.129 353.246 78.23 c 352.926 78.328 352.387
 78.23 352.051 78.23 c 351.125 78.23 349.996 78.332 349.102 78.02 c 348.895
 77.949 348.734 77.777 348.543 77.668 c 347.988 77.355 347.219 77.168 346.574
 77.32 c 346.391 77.363 346.234 77.488 346.082 77.598 c 344.766 78.559 347.23
 80.18 345.945 81.18 c 345.414 81.59 344.734 81.066 344.188 80.969 c 343.504
 80.848 342.625 81.078 342.012 80.688 c 341.648 80.457 341.449 79.539 341.098
 79.426 c 340.332 79.328 340.27 79.188 339.625 79.145 c 338.977 79.102 337.352
 79.121 336.395 78.582 c 335.93 78.32 335.621 78.059 335.621 77.531 c 335.621
 77.438 335.586 77.336 335.621 77.246 c 335.805 76.816 336.359 76.848 336.184
 76.055 c 336.02 75.32 335.477 75.129 335.34 74.719 c 335.164 74.191 335.609
 74.074 334.848 73.738 c 334.707 73.676 334.586 73.512 334.426 73.527 c 
334.277 73.539 334.203 73.727 334.078 73.809 c 333.945 73.891 333.809 73.98
 333.656 74.02 c 333.449 74.074 333.23 74.055 333.023 74.09 c 332.738 74.141
 332.469 74.277 332.18 74.301 c 331.992 74.316 331.805 74.273 331.617 74.301
 c 331.16 74.371 330.633 74.684 330.145 74.789 c 329.508 74.93 329.621 74.289
 328.668 74.582 c 327.719 74.871 327.531 75.039 327.406 75.074 c 327.281
 75.105 325.684 75.277 325.508 75.355 c 324.938 75.605 324.918 76.082 324.527
 76.477 c 324.352 76.652 324.164 76.82 323.965 76.969 c 323.602 77.238 323.527
 77.199 323.051 77.32 c 322.559 77.441 322.348 77.57 321.508 77.531 c 320.664
 77.488 319.34 76.387 318.402 76.316 c 317.676 76.293 317.531 76.477 317.215
 77.492 c 316.902 78.504 315.961 79.57 315.117 80.27 c 313.746 81.082 313.613
 81.836 313.504 82.652 c 313.379 83.508 312.707 85.645 312.098 86.375 c 
311.488 87.105 311.441 87.039 310.762 87.355 c 310.086 87.676 308.746 88.277
 308.375 88.691 c 307.953 89.227 307.75 90.129 307.605 90.586 c 307.457 
91.047 306.918 91.891 306.34 92.48 c 305.762 93.074 305.117 94.137 304.586
 94.938 c 304.055 95.738 303.746 96.633 303.812 97.465 c 303.879 98.301 
303.965 98.496 304.164 99.289 c 304.363 100.086 304.27 101.438 304.023 102.309
 c 303.777 103.18 303.762 103.855 303.605 104.766 c 303.445 105.68 303.125
 105.676 302.969 106.172 c 302.816 106.664 302.863 107.152 302.828 107.785
 c 302.793 108.414 303.055 108.594 303.25 108.699 c 303.586 108.992 303.098
 109.805 303.391 110.242 c 303.551 110.48 304.207 110.684 304.375 110.805
 c 304.469 110.871 304.504 110.996 304.586 111.082 c 304.785 111.305 305
 111.516 305.215 111.719 c 305.328 111.82 305.449 111.902 305.566 111.996
 c 305.801 112.184 306.051 112.352 306.27 112.559 c 306.84 113.09 306.422
 112.918 307.043 113.539 c 307.301 113.797 307.707 113.73 307.887 114.242
 c 308.062 114.754 307.938 115.945 308.164 116.418 c 308.395 116.891 308.816
 116.766 309.078 116.91 c 309.492 117.238 309.77 117.727 310.203 118.031
 c 311.496 118.949 311.754 118.867 313.012 119.227 c 313.625 119.438 314.227
 119.535 314.906 119.93 c 315.129 120.059 314.988 120.652 315.75 120.699
 c 316.512 120.75 317.582 120.219 318.348 119.93 c 319.113 119.641 320.078
 119.176 320.738 119.227 c 321.395 119.277 321.645 119.234 322.211 119.297
 c 322.582 119.336 323.117 119.449 323.652 119.461 c 323.652 101.785 l 323.652
 100.086 325.02 98.719 326.715 98.719 c 370.965 98.719 l 370.977 98.574 
371 98.434 371.016 98.289 c 371.02 98.258 l 371.023 98.25 371.02 98.238 
371.023 98.23 c 371.18 96.754 371.285 95.27 371.34 93.785 c 371.367 93.035
 371.379 92.281 371.383 91.527 c 371.383 90.453 371.355 89.383 371.301 88.312
 c 371.297 88.293 l 371.297 88.281 371.297 88.27 371.297 88.258 c 371.27
 87.793 371.242 87.324 371.207 86.859 c 371.199 86.723 371.188 86.586 371.176
 86.453 c 371.148 86.121 371.121 85.793 371.086 85.461 c 371.086 85.434 
l 371.055 85.156 371.027 84.879 371 84.605 c 370.996 84.578 370.996 84.559
 370.988 84.531 c 370.973 84.379 370.953 84.223 370.938 84.066 c 369.711
 73.699 365.961 64.105 360.32 55.91 c 360.23 55.781 360.141 55.652 360.051
 55.527 c 359.875 55.273 359.699 55.023 359.523 54.777 c 359.52 54.773 359.52
 54.766 359.512 54.766 c 359.379 54.582 359.246 54.402 359.113 54.223 c 
358.977 54.035 358.84 53.852 358.699 53.664 c 358.691 53.656 358.684 53.648
 358.68 53.637 c 358.477 53.371 358.273 53.105 358.07 52.844 c 358.004 52.758
 357.934 52.672 357.867 52.586 c 357.617 52.27 357.363 51.957 357.109 51.645
 c 357.059 51.582 357.008 51.523 356.961 51.461 c 356.949 51.457 356.949
 51.445 356.938 51.438 c 356.641 51.078 356.34 50.727 356.035 50.375 c 356.035
 50.371 356.035 50.371 356.035 50.363 c 355.707 49.988 355.375 49.613 355.039
 49.242 c 354.363 48.496 353.668 47.773 352.957 47.059 c 352.602 46.703 
352.238 46.352 351.875 46.004 c 351.523 45.672 351.172 45.34 350.812 45.016
 c 350.77 44.977 l 350.77 44.973 350.766 44.973 350.762 44.965 c 350.391
 44.629 350.016 44.297 349.637 43.973 c 349.293 43.672 348.941 43.375 348.586
 43.082 c 348.516 43.023 348.445 42.965 348.375 42.906 c 348.363 42.895 
348.348 42.883 348.332 42.875 c 348.043 42.637 347.75 42.402 347.457 42.168
 c 347.348 42.082 347.242 42 347.133 41.914 c 346.883 41.723 346.633 41.527
 346.383 41.34 c 346.172 41.18 345.961 41.023 345.75 40.867 c 345.703 40.832
 l 345.559 40.727 345.418 40.621 345.273 40.52 c 344.926 40.27 344.578 40.023
 344.227 39.781 c 335.922 34.035 326.168 30.234 315.621 29.043 c 315.227
 28.996 314.828 28.953 314.43 28.918 c 314.18 28.895 313.926 28.871 313.676
 28.852 c 313.461 28.836 313.246 28.816 313.031 28.801 c 312.652 28.773 
312.273 28.746 311.895 28.727 c 311.855 28.727 l 311.758 28.719 311.668 
28.715 311.57 28.711 c 311.078 28.688 310.586 28.668 310.094 28.652 c 309.551
 28.637 309.012 28.633 308.469 28.633 c h
305.27 41.434 m 305.305 41.438 305.375 41.449 305.375 41.449 c 305.375 
41.449 305.371 41.449 305.371 41.449 c 305.23 41.426 305.234 41.426 305.27
 41.43 c h
305.375 41.449 m 305.082 41.402 304.93 41.551 304.855 41.625 c 304.781 
41.703 304.781 41.82 304.809 41.879 c 304.832 41.938 304.887 41.969 304.934
 42.02 c 305.004 42.094 305.086 42.164 305.129 42.258 c 305.191 42.402 304.797
 42.375 304.695 42.52 c 304.594 42.664 304.848 42.68 304.977 42.82 c 305.105
 42.965 304.895 43.461 305.195 43.648 c 305.324 43.73 305.734 43.82 305.824
 43.844 c 306.875 44.113 307.656 44.055 308.648 43.582 c 308.992 43.418 
309.32 43.184 309.473 42.82 c 309.621 42.469 309.555 42.141 309.258 41.887
 c 309.191 41.832 309.094 41.82 309.02 41.781 c 308.773 41.652 308.82 41.609
 308.52 41.582 c 308.133 41.551 307.969 41.586 307.605 41.648 c 307.367 
41.691 307.242 41.75 307.082 41.734 c 306.926 41.723 306.836 41.746 306.781
 41.844 c 306.723 41.941 306.809 42.199 306.648 42.258 c 306.5 42.312 306.289
 42.219 306.129 42.215 c 305.996 42.207 305.859 42.25 305.738 42.215 c 305.496
 42.145 305.652 41.504 305.375 41.449 c h
316.465 48.754 m 316.387 48.746 316.285 48.758 316.23 48.77 c 316.031 48.824
 315.945 49.098 315.859 49.227 c 315.844 49.266 315.84 49.309 315.816 49.336
 c 315.766 49.395 315.707 49.445 315.641 49.488 c 315.484 49.602 315.289
 49.551 315.121 49.641 c 315.066 49.672 315.02 49.711 314.969 49.75 c 314.938
 49.77 314.902 49.785 314.883 49.816 c 314.855 49.859 314.848 49.914 314.84
 49.965 c 314.793 50.336 315.164 50.465 315.23 50.617 c 315.297 50.77 315.176
 50.844 315.273 50.988 c 315.371 51.133 315.855 51.168 315.883 51.246 c 
315.91 51.328 315.863 51.617 315.945 51.641 c 316.27 51.727 316.484 51.645
 316.551 51.777 c 316.617 51.914 316.355 52.129 316.207 52.246 c 316.066
 52.359 315.836 52.348 315.664 52.379 c 315.367 52.43 315.082 52.539 314.773
 52.551 c 314.598 52.559 314.488 52.445 314.102 52.508 c 313.711 52.57 313.961
 53.148 313.559 53.266 c 313.305 53.34 313.289 53.23 313.039 53.332 c 312.785
 53.434 312.805 53.859 312.797 54.027 c 312.781 54.477 313.363 54.496 313.426
 54.875 c 313.441 54.961 313.461 55.055 313.426 55.133 c 313.379 55.242 
313.133 55.277 312.906 55.418 c 312.68 55.555 312.504 56.094 313.016 56.242
 c 313.562 56.398 313.945 56.129 314.211 55.895 c 314.477 55.66 314.379 
55.594 314.578 55.523 c 314.777 55.457 315.027 55.531 315.297 55.461 c 315.562
 55.391 315.719 55.18 315.773 54.852 c 315.812 54.613 315.703 54.094 315.645
 53.875 c 315.605 53.73 315.461 53.605 315.602 53.441 c 315.703 53.32 315.918
 53.367 316.035 53.266 c 316.129 53.184 316.066 53.156 316.102 53.051 c 
316.172 52.836 316.469 52.727 316.664 52.68 c 316.852 52.633 317.293 52.566
 317.402 52.602 c 317.508 52.641 317.52 52.848 317.641 52.984 c 317.766 
53.121 317.887 53.34 318.043 53.453 c 318.195 53.57 318.258 53.578 318.379
 53.832 c 318.5 54.082 318.27 54.16 318.012 54.203 c 317.902 54.215 317.812
 54.23 317.73 54.266 c 317.648 54.301 317.586 54.371 317.531 54.441 c 317.195
 54.891 317.617 54.98 317.621 55.242 c 317.625 55.504 316.977 55.781 317.055
 56.047 c 317.137 56.312 318.012 56.41 318.383 56.461 c 318.477 56.477 318.59
 56.41 318.641 56.48 c 318.672 56.527 318.617 56.566 318.598 56.641 c 318.574
 56.711 318.676 56.887 318.555 56.938 c 318.438 56.988 318.215 56.887 318.098
 56.957 c 317.984 57.031 317.992 57.113 317.945 57.156 c 317.902 57.195 
317.883 57.164 317.84 57.199 c 317.797 57.23 317.59 57.375 317.688 57.523
 c 317.785 57.672 318.168 57.785 318.383 57.719 c 318.789 57.598 318.727
 57.426 319.098 57.328 c 319.43 57.242 319.594 57.316 319.922 57.285 c 320.047
 57.273 320.168 57.242 320.293 57.219 c 320.457 57.199 320.625 57.168 320.793
 57.156 c 321.191 57.125 321.816 57.211 322.16 56.914 c 322.566 56.574 321.836
 56.598 321.836 56.395 c 321.836 56.113 322.398 55.852 322.355 55.441 c 
322.344 55.316 322.305 55.188 322.227 55.09 c 321.859 54.621 321.496 54.941
 321.074 54.68 c 320.949 54.598 320.977 54.348 320.902 54.246 c 320.676 
53.93 320.695 54.102 320.512 53.898 c 320.477 53.859 320.457 53.805 320.422
 53.766 c 320.387 53.727 320.328 53.703 320.293 53.66 c 320.074 53.355 320.324
 53.465 319.945 53.16 c 319.777 53.023 319.57 52.945 319.402 52.812 c 318.867
 52.371 319.305 52.582 318.883 52.074 c 318.758 51.922 318.598 51.805 318.445
 51.684 c 318.316 51.578 318.133 51.461 318.035 51.402 c 317.938 51.34 317.895
 51.367 317.859 51.312 c 317.801 51.211 317.777 51.086 317.773 50.965 c 
317.766 50.754 318.504 50.18 318.141 49.922 c 318.004 49.824 317.828 49.789
 317.664 49.75 c 317.488 49.703 317.301 49.691 317.121 49.664 c 317.07 49.656
 317.008 49.676 316.969 49.641 c 316.48 49.18 316.895 49.289 316.797 48.988
 c 316.773 48.93 316.691 48.922 316.645 48.883 c 316.605 48.848 316.578 
48.797 316.535 48.77 c 316.512 48.758 316.492 48.75 316.465 48.75 c h
268.059 70.074 m 275.176 70.074 l 275.176 112.297 l 268.059 112.297 l h
246.992 81.57 m 251.473 81.57 254.887 82.652 257.242 84.812 c 259.633 86.938
 260.828 90.16 260.828 94.488 c 260.828 112.297 l 254.109 112.297 l 254.109
 108.598 l 253.238 109.926 251.984 110.949 250.352 111.672 c 248.758 112.355
 246.824 112.695 244.547 112.695 c 242.27 112.695 240.273 112.316 238.566
 111.559 c 236.859 110.762 235.531 109.68 234.582 108.312 c 233.672 106.91
 233.215 105.336 233.215 103.59 c 233.215 100.859 234.223 98.68 236.234 
97.047 c 238.281 95.379 241.488 94.543 245.855 94.543 c 253.711 94.543 l
 253.711 94.09 l 253.711 91.965 253.066 90.332 251.777 89.195 c 250.523 
88.055 248.645 87.488 246.141 87.488 c 244.43 87.488 242.742 87.754 241.07
 88.285 c 239.441 88.816 238.055 89.555 236.918 90.504 c 234.125 85.324 
l 235.719 84.109 237.637 83.18 239.875 82.535 c 242.117 81.891 244.488 81.57
 246.992 81.57 c h
246.027 107.52 m 247.809 107.52 249.383 107.121 250.75 106.324 c 252.156
 105.488 253.141 104.312 253.711 102.793 c 253.711 99.266 l 246.367 99.266
 l 242.27 99.266 240.219 100.613 240.219 103.309 c 240.219 104.598 240.73
 105.621 241.754 106.379 c 242.781 107.137 244.203 107.52 246.027 107.52
 c h
213.344 81.57 m 216.305 81.57 218.945 82.215 221.258 83.504 c 223.613 84.793
 225.453 86.613 226.781 88.969 c 228.109 91.32 228.773 94.031 228.773 97.105
 c 228.773 100.176 228.109 102.91 226.781 105.297 c 225.453 107.648 223.613
 109.473 221.258 110.762 c 218.945 112.051 216.305 112.695 213.344 112.695
 c 211.258 112.695 209.34 112.336 207.594 111.613 c 205.887 110.895 204.445
 109.812 203.266 108.371 c 203.266 112.297 l 196.492 112.297 l 196.492 70.074
 l 203.609 70.074 l 203.609 85.609 l 204.824 84.281 206.246 83.277 207.879
 82.594 c 209.551 81.91 211.371 81.57 213.344 81.57 c h
212.547 106.605 m 215.168 106.605 217.312 105.734 218.98 103.988 c 220.691
 102.246 221.543 99.949 221.543 97.105 c 221.543 94.258 220.691 91.965 218.98
 90.219 c 217.312 88.473 215.168 87.602 212.547 87.602 c 210.84 87.602 209.301
 88 207.938 88.797 c 206.57 89.555 205.488 90.656 204.691 92.098 c 203.895
 93.539 203.496 95.207 203.496 97.105 c 203.496 99 203.895 100.672 204.691
 102.113 c 205.488 103.555 206.57 104.672 207.938 105.469 c 209.301 106.227
 210.84 106.605 212.547 106.605 c h
175.363 112.695 m 172.289 112.695 169.52 112.031 167.051 110.703 c 164.582
 109.375 162.648 107.535 161.242 105.184 c 159.879 102.793 159.195 100.102
 159.195 97.105 c 159.195 94.105 159.879 91.434 161.242 89.082 c 162.648
 86.73 164.582 84.891 167.051 83.562 c 169.52 82.234 172.289 81.57 175.363
 81.57 c 178.477 81.57 181.266 82.234 183.734 83.562 c 186.199 84.891 188.117
 86.73 189.484 89.082 c 190.887 91.434 191.59 94.105 191.59 97.105 c 191.59
 100.102 190.887 102.793 189.484 105.184 c 188.117 107.535 186.199 109.375
 183.734 110.703 c 181.266 112.031 178.477 112.695 175.363 112.695 c h
175.363 106.605 m 177.98 106.605 180.145 105.734 181.855 103.988 c 183.562
 102.246 184.414 99.949 184.414 97.105 c 184.414 94.258 183.562 91.965 181.855
 90.219 c 180.145 88.473 177.98 87.602 175.363 87.602 c 172.746 87.602 170.582
 88.473 168.871 90.219 c 167.203 91.965 166.367 94.258 166.367 97.105 c 
166.367 99.949 167.203 102.246 168.871 103.988 c 170.582 105.734 172.746
 106.605 175.363 106.605 c h
147.145 70.074 m 154.262 70.074 l 154.262 112.297 l 147.145 112.297 l h
138.645 81.91 m 138.645 107.688 l 138.645 118.387 133.18 123.734 122.246
 123.734 c 119.324 123.734 116.555 123.355 113.934 122.598 c 111.316 121.875
 109.152 120.812 107.445 119.41 c 110.633 114.062 l 111.961 115.16 113.633
 116.035 115.645 116.68 c 117.691 117.363 119.762 117.703 121.848 117.703
 c 125.188 117.703 127.637 116.945 129.195 115.426 c 130.75 113.91 131.527
 111.598 131.527 108.484 c 131.527 106.891 l 130.312 108.219 128.832 109.227
 127.086 109.906 c 125.34 110.59 123.426 110.934 121.336 110.934 c 118.453
 110.934 115.832 110.324 113.48 109.109 c 111.164 107.859 109.324 106.113
 107.957 103.875 c 106.629 101.637 105.965 99.078 105.965 96.195 c 105.965
 93.309 106.629 90.77 107.957 88.57 c 109.324 86.332 111.164 84.605 113.48
 83.391 c 115.832 82.176 118.453 81.57 121.336 81.57 c 123.539 81.57 125.531
 81.93 127.316 82.652 c 129.137 83.371 130.656 84.473 131.871 85.949 c 131.871
 81.91 l h
122.418 104.898 m 125.113 104.898 127.316 104.102 129.023 102.512 c 130.77
 100.879 131.641 98.773 131.641 96.195 c 131.641 93.652 130.77 91.586 129.023
 89.992 c 127.316 88.398 125.113 87.602 122.418 87.602 c 119.688 87.602 
117.445 88.398 115.699 89.992 c 113.992 91.586 113.137 93.652 113.137 96.195
 c 113.137 98.773 113.992 100.879 115.699 102.512 c 117.445 104.102 119.688
 104.898 122.418 104.898 c h
306.605 144.965 m 281.719 144.965 l 281.945 148.047 283.133 150.551 285.285
 152.469 c 287.434 154.352 290.148 155.293 293.426 155.293 c 295.273 155.293
 296.973 154.973 298.52 154.332 c 300.062 153.656 301.402 152.676 302.531
 151.398 c 304.797 153.992 l 303.477 155.574 301.816 156.777 299.82 157.605
 c 297.859 158.434 295.691 158.848 293.312 158.848 c 290.262 158.848 287.547
 158.207 285.172 156.93 c 282.832 155.613 281.004 153.805 279.684 151.512
 c 278.363 149.215 277.703 146.617 277.703 143.723 c 277.703 140.824 278.328
 138.227 279.57 135.934 c 280.852 133.637 282.586 131.852 284.773 130.57
 c 287 129.293 289.488 128.652 292.238 128.652 c 294.992 128.652 297.461
 129.293 299.648 130.57 c 301.836 131.852 303.551 133.637 304.797 135.934
 c 306.039 138.191 306.66 140.785 306.66 143.723 c h
292.238 132.094 m 289.375 132.094 286.961 133.016 285 134.859 c 283.078
 136.668 281.984 139.035 281.719 141.973 c 302.816 141.973 l 302.551 139.035
 301.441 136.668 299.48 134.859 c 297.555 133.016 295.145 132.094 292.238
 132.094 c h
269.961 128.879 m 269.961 154.953 l 269.961 159.996 268.719 163.719 266.23
 166.129 c 263.777 168.574 260.066 169.797 255.086 169.797 c 252.336 169.797
 249.715 169.383 247.227 168.555 c 244.777 167.766 242.777 166.656 241.23
 165.227 c 243.266 162.176 l 244.699 163.457 246.434 164.453 248.469 165.168
 c 250.543 165.883 252.711 166.242 254.973 166.242 c 258.746 166.242 261.516
 165.355 263.289 163.59 c 265.059 161.859 265.945 159.148 265.945 155.461
 c 265.945 151.68 l 264.703 153.562 263.062 154.992 261.027 155.969 c 259.027
 156.949 256.805 157.438 254.352 157.438 c 251.562 157.438 249.016 156.836
 246.719 155.629 c 244.453 154.387 242.664 152.676 241.344 150.496 c 240.062
 148.273 239.422 145.773 239.422 142.988 c 239.422 140.203 240.062 137.719
 241.344 135.539 c 242.664 133.355 244.453 131.66 246.719 130.457 c 248.98
 129.254 251.523 128.652 254.352 128.652 c 256.879 128.652 259.16 129.16
 261.195 130.176 c 263.23 131.191 264.871 132.66 266.117 134.578 c 266.117
 128.879 l h
254.75 153.879 m 256.898 153.879 258.84 153.43 260.574 152.527 c 262.309
 151.586 263.648 150.289 264.59 148.633 c 265.57 146.977 266.059 145.094
 266.059 142.988 c 266.059 140.879 265.57 139.02 264.59 137.398 c 263.648
 135.746 262.309 134.465 260.574 133.562 c 258.879 132.621 256.934 132.152
 254.75 132.152 c 252.598 132.152 250.656 132.602 248.922 133.504 c 247.227
 134.41 245.887 135.688 244.906 137.344 c 243.965 139 243.492 140.879 243.492
 142.988 c 243.492 145.094 243.965 146.977 244.906 148.633 c 245.887 150.289
 247.227 151.586 248.922 152.527 c 250.656 153.43 252.598 153.879 254.75
 153.879 c h
224.883 134.691 m 225.824 132.695 227.219 131.191 229.066 130.176 c 230.953
 129.16 233.27 128.652 236.023 128.652 c 236.023 132.547 l 235.062 132.488
 l 231.934 132.488 229.48 133.449 227.711 135.367 c 225.938 137.285 225.051
 139.977 225.051 143.438 c 225.051 158.566 l 221.035 158.566 l 221.035 128.879
 l 224.883 128.879 l h
198.57 128.652 m 202.457 128.652 205.434 129.629 207.508 131.586 c 209.582
 133.504 210.617 136.363 210.617 140.164 c 210.617 158.566 l 206.773 158.566
 l 206.773 153.938 l 205.867 155.48 204.531 156.684 202.758 157.551 c 201.023
 158.414 198.949 158.848 196.535 158.848 c 193.219 158.848 190.578 158.059
 188.617 156.477 c 186.656 154.898 185.676 152.809 185.676 150.211 c 185.676
 147.691 186.582 145.66 188.391 144.117 c 190.238 142.574 193.16 141.801
 197.16 141.801 c 206.602 141.801 l 206.602 139.996 l 206.602 137.438 205.887
 135.5 204.453 134.184 c 203.02 132.828 200.93 132.152 198.176 132.152 c
 196.293 132.152 194.48 132.469 192.746 133.109 c 191.012 133.711 189.523
 134.559 188.277 135.648 c 186.469 132.66 l 187.977 131.379 189.785 130.402
 191.898 129.723 c 194.012 129.008 196.234 128.652 198.57 128.652 c h
197.16 155.688 m 199.422 155.688 201.363 155.18 202.984 154.164 c 204.605
 153.109 205.812 151.605 206.602 149.648 c 206.602 144.793 l 197.27 144.793
 l 192.18 144.793 189.637 146.562 189.637 150.098 c 189.637 151.828 190.297
 153.203 191.617 154.219 c 192.934 155.199 194.781 155.688 197.16 155.688
 c h
165.48 128.652 m 169.215 128.652 172.176 129.742 174.359 131.926 c 176.586
 134.07 177.699 137.211 177.699 141.352 c 177.699 158.566 l 173.684 158.566
 l 173.684 141.746 l 173.684 138.66 172.91 136.309 171.363 134.691 c 169.816
 133.074 167.613 132.266 164.746 132.266 c 161.543 132.266 158.996 133.223
 157.109 135.141 c 155.262 137.023 154.34 139.641 154.34 142.988 c 154.34
 158.566 l 150.324 158.566 l 150.324 116.688 l 154.34 116.688 l 154.34 134.07
 l 155.434 132.34 156.941 131.004 158.863 130.062 c 160.789 129.121 162.992
 128.652 165.48 128.652 c h
130.66 158.848 m 127.719 158.848 125.082 158.207 122.742 156.93 c 120.441
 155.648 118.633 153.863 117.312 151.566 c 115.992 149.234 115.336 146.617
 115.336 143.723 c 115.336 140.824 115.992 138.227 117.312 135.934 c 118.633
 133.637 120.441 131.852 122.742 130.57 c 125.082 129.293 127.719 128.652
 130.66 128.652 c 133.227 128.652 135.504 129.16 137.504 130.176 c 139.539
 131.152 141.145 132.602 142.312 134.52 c 139.312 136.555 l 138.332 135.086
 137.09 133.996 135.582 133.281 c 134.074 132.527 132.434 132.152 130.66
 132.152 c 128.512 132.152 126.57 132.641 124.836 133.617 c 123.141 134.559
 121.801 135.914 120.82 137.684 c 119.879 139.449 119.406 141.465 119.406
 143.723 c 119.406 146.016 119.879 148.047 120.82 149.816 c 121.801 151.547
 123.141 152.902 124.836 153.879 c 126.57 154.82 128.512 155.293 130.66 
155.293 c 132.434 155.293 134.074 154.934 135.582 154.219 c 137.09 153.504
 138.332 152.414 139.312 150.945 c 142.312 152.977 l 141.145 154.898 139.539
 156.363 137.504 157.379 c 135.469 158.359 133.188 158.848 130.66 158.848
 c h
96.957 158.848 m 94.547 158.848 92.227 158.508 90 157.832 c 87.816 157.117
 86.098 156.23 84.855 155.18 c 86.664 152.02 l 87.91 152.996 89.473 153.805
 91.359 154.445 c 93.246 155.047 95.203 155.348 97.242 155.348 c 99.957 
155.348 101.953 154.934 103.234 154.105 c 104.555 153.242 105.215 152.035
 105.215 150.496 c 105.215 149.402 104.855 148.555 104.141 147.953 c 103.426
 147.316 102.52 146.844 101.426 146.543 c 100.332 146.203 98.883 145.887
 97.07 145.582 c 94.66 145.133 92.715 144.68 91.246 144.23 c 89.777 143.738
 88.512 142.93 87.457 141.801 c 86.438 140.672 85.93 139.113 85.93 137.117
 c 85.93 134.633 86.965 132.602 89.039 131.023 c 91.113 129.441 94 128.652
 97.695 128.652 c 99.617 128.652 101.539 128.914 103.461 129.441 c 105.387
 129.93 106.969 130.59 108.215 131.418 c 106.461 134.633 l 104.008 132.941
 101.086 132.094 97.695 132.094 c 95.129 132.094 93.188 132.547 91.867 133.449
 c 90.586 134.352 89.945 135.539 89.945 137.004 c 89.945 138.133 90.305 
139.035 91.02 139.715 c 91.773 140.391 92.699 140.898 93.793 141.238 c 94.883
 141.539 96.395 141.859 98.316 142.199 c 100.691 142.648 102.594 143.102
 104.027 143.551 c 105.461 144.004 106.688 144.773 107.703 145.867 c 108.723
 146.957 109.23 148.461 109.23 150.383 c 109.23 152.977 108.137 155.047 
105.949 156.59 c 103.801 158.094 100.805 158.848 96.957 158.848 c h
73.117 128.879 m 77.133 128.879 l 77.133 158.566 l 73.117 158.566 l h
62.426 116.688 m 62.426 158.566 l 58.578 158.566 l 58.578 152.695 l 57.371
 154.691 55.77 156.215 53.77 157.266 c 51.809 158.32 49.586 158.848 47.098
 158.848 c 44.309 158.848 41.781 158.207 39.52 156.93 c 37.258 155.648 35.484
 153.863 34.203 151.566 c 32.922 149.27 32.281 146.656 32.281 143.723 c 
32.281 140.785 32.922 138.172 34.203 135.875 c 35.484 133.582 37.258 131.812
 39.52 130.57 c 41.781 129.293 44.309 128.652 47.098 128.652 c 49.512 128.652
 51.68 129.16 53.602 130.176 c 55.562 131.152 57.164 132.602 58.41 134.52
 c 58.41 116.688 l h
47.438 155.293 m 49.512 155.293 51.375 154.82 53.035 153.879 c 54.73 152.902
 56.051 151.527 56.996 149.762 c 57.977 147.992 58.465 145.98 58.465 143.723
 c 58.465 141.465 57.977 139.449 56.996 137.684 c 56.051 135.914 54.73 134.559
 53.035 133.617 c 51.375 132.641 49.512 132.152 47.438 132.152 c 45.324 
132.152 43.422 132.641 41.723 133.617 c 40.066 134.559 38.746 135.914 37.766
 137.684 c 36.824 139.449 36.352 141.465 36.352 143.723 c 36.352 145.98 
36.824 147.992 37.766 149.762 c 38.746 151.527 40.066 152.902 41.723 153.879
 c 43.422 154.82 45.324 155.293 47.438 155.293 c h
47.438 155.293 m W n
[1.640784 0 0 1.640784 79.463254 132.890017] concat
/CairoFunction
   << /FunctionType 2
      /Domain [ 0 1 ]
      /C0 [ 0.00392157 0.341176 0.607843 ]
      /C1 [ 0.298039 0.686275 0.313726 ]
      /N 1
   >>
def
   << /ShadingType 2
      /ColorSpace /DeviceRGB
      /Coords [ 150.08963 -20.736666 143.110229 -39.25909 ]
      /Extend [ true true ]
      /Function CairoFunction
   >>
shfill
Q
0.00392157 0.341176 0.607843 rg
2.999448 w
1 J
1 j
[] 0.0 d
4 M q 1 0 0 0.999692 0 0 cm
325.727 98.898 m 324.613 98.898 323.715 99.929 323.715 101.219 c 323.715
 154.598 l 323.715 155.888 324.613 156.919 325.727 156.919 c 412.215 156.919
 l 413.328 156.919 414.227 155.888 414.227 154.598 c 414.227 140.672 l 417.754
 140.672 l 418.867 140.672 419.766 139.641 419.766 138.351 c 419.766 117.466
 l 419.766 116.176 418.867 115.145 417.754 115.145 c 414.227 115.145 l 414.227
 101.219 l 414.227 99.929 413.328 98.898 412.215 98.898 c h
325.727 98.898 m S Q
1 0.439216 0.262745 rg
329.391 104.707 m 329.391 151.035 l 329.406 151.016 329.418 150.996 329.434
 150.977 c 330.656 150.539 331.863 150.066 333.047 149.547 c 340.535 146.281
 347.273 141.543 352.875 135.664 c 360.801 127.34 366.445 116.723 368.703
 104.738 c h
329.391 104.707 m f
Q Q
showpage
%%Trailer
end
%%EOF
